﻿<?xml version = "1.0" encoding="Windows-1252" standalone="yes"?>
<BackgroundReports xmlns:xsi="http://www.w3.org/2001/XMLSchema-instance"
   userId="jc7ht3fshg" password="y9kk2m6ia3" version="1.0">
   <BatchData>
      <DestSiteIdentifier>FCR155494272</DestSiteIdentifier>
      <SourceSiteIdentifier>FIRST_CHOICE</SourceSiteIdentifier>
      <AcctCode>USAINT</AcctCode>
      <BatchID>FCR_01359944</BatchID>
      <RecordCount>1</RecordCount>
   </BatchData>
   <BackgroundReportPackage type="report">
      <ScreeningStatus>
         <OrderStatus>COMPLETE</OrderStatus>
         <DateOrderReceived>08/29/14 @ 08:48</DateOrderReceived>
         <DateOrderCompleted>09/02/14 @ 08:54</DateOrderCompleted>
         <ReturnedResultsFormat>1</ReturnedResultsFormat>
      </ScreeningStatus>
      <ScreeningsSummary>
         <PersonalData>
            <PersonName>
               <GivenName>Michael</GivenName>
               <MiddleName/>
               <FamilyName>Barbaro</FamilyName>
            </PersonName>
            <DemographicDetail>
               <Ssn></Ssn>
               <DateOfBirth>04/16/1971</DateOfBirth>
            </DemographicDetail>
            <RequestIdData>
               <ReferenceID>WCV_3361baa6-7a2f-e411-b1d6-00</ReferenceID>
            </RequestIdData>
         </PersonalData>
      </ScreeningsSummary>
      <Screenings>
         <Screening type="workcomp">
            <ScreeningResults type="result" mediaType="text" resultType="report">
               <Status>COMPLETE</Status>
               <Text>
State
                     -----
                      FL
NO RECORDS ON FILE
               </Text>
            </ScreeningResults>
         </Screening>
      </Screenings>
   </BackgroundReportPackage>
</BackgroundReports>
