﻿<?xml version="1.0" encoding="ISO-8859-1"?>
<BackgroundReports account="" password="" userId="" xmlns="http://ns.hr-xml.org/2004-08-02">
	<BackgroundReportPackage>
		<ScreeningsSummary>
			<PersonalData>
				<PersonName>
					<GivenName>Shaun</GivenName>
					<MiddleName/>
					<FamilyName>Cummings</FamilyName>
				</PersonName>
				<DemographicDetail>
					<DateOfBirth>1969-03-22</DateOfBirth>
					<GovernmentId countryCode="US" issuingAuthority="SSN">005627638</GovernmentId>
				</DemographicDetail>
			</PersonalData>
		</ScreeningsSummary>
		<Screenings>
			<Screening type="x:ssnvalidation">
				<ScreeningStatus>
					<OrderStatus>Completed</OrderStatus>
					<ResultStatus>NoDiscrepancy</ResultStatus>
				</ScreeningStatus>
				<SSNReport>
					<SSNStatus>Maine In 1972-1973</SSNStatus>
					<DateOfDeath>Not Found</DateOfDeath>
				</SSNReport>
			</Screening>
			<Screening type="x:addresstrace">
				<ClientReferenceId>
					<IdValue>1352877568_PS</IdValue>
				</ClientReferenceId>
				<SSNReport>
					<ProcessedDate>
						<AnyDate>2016-07-01T20:50:34-04:00</AnyDate>
					</ProcessedDate>
					<CreditFile recordCount="43">
						<PersonalData>
							<EffectiveDate>
								<StartDate>
									<YearMonth>1993-12</YearMonth>
								</StartDate>
								<EndDate>
									<AnyDate>2016-07-01</AnyDate>
									<YearMonth>2016-07</YearMonth>
								</EndDate>
							</EffectiveDate>
							<PersonName>
								<FormattedName>CUMMINGS SHAUN J</FormattedName>
								<GivenName>SHAUN</GivenName>
								<MiddleName>J</MiddleName>
								<FamilyName>CUMMINGS</FamilyName>
							</PersonName>
							<PostalAddress type="undefined">
								<CountryCode>US</CountryCode>
								<PostalCode>91745-2317</PostalCode>
								<Region>CA</Region>
								<Municipality>HACIENDA HEIGHTS</Municipality>
								<County>LOS ANGELES</County>
								<DeliveryAddress>
									<AddressLine>16168 SHADYBEND DR</AddressLine>
									<StreetName> 16168 SHADYBEND DR  </StreetName>
								</DeliveryAddress>
							</PostalAddress>
							<ContactMethod>
								<Telephone>
									<FormattedNumber>6264356834</FormattedNumber>
								</Telephone>
							</ContactMethod>
							<DemographicDetail>
								<GovernmentId countryCode="US" documentType="SSN" issuingAuthority="Social Security Administration">005627638</GovernmentId>
								<DateOfBirth>1969-03-22</DateOfBirth>
								<Age>47</Age>
							</DemographicDetail>
						</PersonalData>
						<PersonalData>
							<EffectiveDate>
								<StartDate>
									<YearMonth>2004-01</YearMonth>
								</StartDate>
								<EndDate>
									<AnyDate>2015-11-06</AnyDate>
									<YearMonth>2015-11</YearMonth>
								</EndDate>
							</EffectiveDate>
							<PersonName>
								<FormattedName>CUMMINGS SHAUN J</FormattedName>
								<GivenName>SHAUN</GivenName>
								<MiddleName>J</MiddleName>
								<FamilyName>CUMMINGS</FamilyName>
							</PersonName>
							<PostalAddress type="undefined">
								<CountryCode>US</CountryCode>
								<PostalCode>90602-2247</PostalCode>
								<Region>CA</Region>
								<Municipality>WHITTIER</Municipality>
								<County>LOS ANGELES</County>
								<DeliveryAddress>
									<AddressLine>8011 BRIGHT AVE APT 7</AddressLine>
									<StreetName> 8011 BRIGHT AVE APT 7  </StreetName>
								</DeliveryAddress>
							</PostalAddress>
							<DemographicDetail>
								<GovernmentId countryCode="US" documentType="SSN" issuingAuthority="Social Security Administration">005627638</GovernmentId>
								<DateOfBirth>1969-03-22</DateOfBirth>
								<Age>47</Age>
							</DemographicDetail>
						</PersonalData>
						<PersonalData>
							<EffectiveDate>
								<StartDate>
									<AnyDate>2006-01-06</AnyDate>
									<YearMonth>2006-01</YearMonth>
								</StartDate>
								<EndDate>
									<AnyDate>2013-09-30</AnyDate>
									<YearMonth>2013-09</YearMonth>
								</EndDate>
							</EffectiveDate>
							<PersonName>
								<FormattedName>CUMMINGS SHAUN J</FormattedName>
								<GivenName>SHAUN</GivenName>
								<MiddleName>J</MiddleName>
								<FamilyName>CUMMINGS</FamilyName>
							</PersonName>
							<PostalAddress type="undefined">
								<CountryCode>US</CountryCode>
								<PostalCode>90602-1760</PostalCode>
								<Region>CA</Region>
								<Municipality>WHITTIER</Municipality>
								<County>LOS ANGELES</County>
								<DeliveryAddress>
									<AddressLine>7637 BRIGHT AVE APT A</AddressLine>
									<StreetName> 7637 BRIGHT AVE APT A  </StreetName>
								</DeliveryAddress>
							</PostalAddress>
							<DemographicDetail>
								<GovernmentId countryCode="US" documentType="SSN" issuingAuthority="Social Security Administration">005627638</GovernmentId>
								<DateOfBirth>1969-03-22</DateOfBirth>
								<Age>47</Age>
							</DemographicDetail>
						</PersonalData>
						<PersonalData>
							<EffectiveDate>
								<StartDate>
									<YearMonth>2006-11</YearMonth>
								</StartDate>
								<EndDate>
									<AnyDate>2011-04-06</AnyDate>
									<YearMonth>2011-04</YearMonth>
								</EndDate>
							</EffectiveDate>
							<PersonName>
								<FormattedName>CUMMINGS SHAUN J</FormattedName>
								<GivenName>SHAUN</GivenName>
								<MiddleName>J</MiddleName>
								<FamilyName>CUMMINGS</FamilyName>
							</PersonName>
							<PostalAddress type="undefined">
								<CountryCode>US</CountryCode>
								<PostalCode>91745-2324</PostalCode>
								<Region>CA</Region>
								<Municipality>HACIENDA HEIGHTS</Municipality>
								<County>LOS ANGELES</County>
								<DeliveryAddress>
									<AddressLine>16327 BINNEY ST</AddressLine>
									<StreetName> 16327 BINNEY ST  </StreetName>
								</DeliveryAddress>
							</PostalAddress>
							<DemographicDetail>
								<GovernmentId countryCode="US" documentType="SSN" issuingAuthority="Social Security Administration">005627638</GovernmentId>
								<DateOfBirth>1969-03-22</DateOfBirth>
								<Age>47</Age>
							</DemographicDetail>
						</PersonalData>
						<PersonalData>
							<EffectiveDate>
								<StartDate>
									<AnyDate>2011-04-06</AnyDate>
									<YearMonth>2011-04</YearMonth>
								</StartDate>
								<EndDate>
									<AnyDate>2011-04-06</AnyDate>
									<YearMonth>2011-04</YearMonth>
								</EndDate>
							</EffectiveDate>
							<PersonName>
								<FormattedName>CUMMINGS SHAUN J</FormattedName>
								<GivenName>SHAUN</GivenName>
								<MiddleName>J</MiddleName>
								<FamilyName>CUMMINGS</FamilyName>
							</PersonName>
							<PostalAddress type="undefined">
								<CountryCode>US</CountryCode>
								<PostalCode>91745</PostalCode>
								<Region>CA</Region>
								<Municipality>HACIENDA HTS</Municipality>
								<County>LOS ANGELES</County>
								<DeliveryAddress>
									<AddressLine>116327 BINNEY ST</AddressLine>
									<StreetName> 116327 BINNEY ST  </StreetName>
								</DeliveryAddress>
							</PostalAddress>
							<DemographicDetail>
								<GovernmentId countryCode="US" documentType="SSN" issuingAuthority="Social Security Administration">005627638</GovernmentId>
								<DateOfBirth>1969-03-22</DateOfBirth>
								<Age>47</Age>
							</DemographicDetail>
						</PersonalData>
						<PersonalData>
							<EffectiveDate>
								<StartDate>
									<AnyDate>2010-05-31</AnyDate>
									<YearMonth>2010-05</YearMonth>
								</StartDate>
								<EndDate>
									<AnyDate>2010-05-31</AnyDate>
									<YearMonth>2010-05</YearMonth>
								</EndDate>
							</EffectiveDate>
							<PersonName>
								<FormattedName>CUMMINGS SHAUN J</FormattedName>
								<GivenName>SHAUN</GivenName>
								<MiddleName>J</MiddleName>
								<FamilyName>CUMMINGS</FamilyName>
							</PersonName>
							<PostalAddress type="undefined">
								<CountryCode>US</CountryCode>
								<PostalCode>91734-1065</PostalCode>
								<Region>CA</Region>
								<Municipality>EL MONTE</Municipality>
								<County>LOS ANGELES</County>
								<DeliveryAddress>
									<AddressLine>PO BOX 5065</AddressLine>
									<StreetName> PO BOX 5065  </StreetName>
								</DeliveryAddress>
							</PostalAddress>
							<DemographicDetail>
								<GovernmentId countryCode="US" documentType="SSN" issuingAuthority="Social Security Administration">005627638</GovernmentId>
								<DateOfBirth>1969-03-22</DateOfBirth>
								<Age>47</Age>
							</DemographicDetail>
						</PersonalData>
						<PersonalData>
							<EffectiveDate>
								<StartDate>
									<AnyDate>2009-11-20</AnyDate>
									<YearMonth>2009-11</YearMonth>
								</StartDate>
								<EndDate>
									<AnyDate>2009-11-20</AnyDate>
									<YearMonth>2009-11</YearMonth>
								</EndDate>
							</EffectiveDate>
							<PersonName>
								<FormattedName>CUMMINGS SHAUN J</FormattedName>
								<GivenName>SHAUN</GivenName>
								<MiddleName>J</MiddleName>
								<FamilyName>CUMMINGS</FamilyName>
							</PersonName>
							<PostalAddress type="undefined">
								<CountryCode>US</CountryCode>
								<PostalCode>90802-3916</PostalCode>
								<Region>CA</Region>
								<Municipality>LONG BEACH</Municipality>
								<County>LOS ANGELES</County>
								<DeliveryAddress>
									<AddressLine>1831 E APPLETON ST APT 12</AddressLine>
									<StreetName> 1831 E APPLETON ST APT 12  </StreetName>
								</DeliveryAddress>
							</PostalAddress>
							<DemographicDetail>
								<GovernmentId countryCode="US" documentType="SSN" issuingAuthority="Social Security Administration">005627638</GovernmentId>
								<DateOfBirth>1969-03-22</DateOfBirth>
								<Age>47</Age>
							</DemographicDetail>
						</PersonalData>
						<PersonalData>
							<EffectiveDate>
								<StartDate>
									<YearMonth>2005-03</YearMonth>
								</StartDate>
								<EndDate>
									<AnyDate>2009-09-26</AnyDate>
									<YearMonth>2009-09</YearMonth>
								</EndDate>
							</EffectiveDate>
							<PersonName>
								<FormattedName>CUMMINGS SHAUN J</FormattedName>
								<GivenName>SHAUN</GivenName>
								<MiddleName>J</MiddleName>
								<FamilyName>CUMMINGS</FamilyName>
							</PersonName>
							<PostalAddress type="undefined">
								<CountryCode>US</CountryCode>
								<PostalCode>90601-3037</PostalCode>
								<Region>CA</Region>
								<Municipality>WHITTIER</Municipality>
								<County>LOS ANGELES</County>
								<DeliveryAddress>
									<AddressLine>12426 BEVERLY BLVD APT 2</AddressLine>
									<StreetName> 12426 BEVERLY BLVD APT 2  </StreetName>
								</DeliveryAddress>
							</PostalAddress>
							<DemographicDetail>
								<GovernmentId countryCode="US" documentType="SSN" issuingAuthority="Social Security Administration">005627638</GovernmentId>
								<DateOfBirth>1969-03-22</DateOfBirth>
								<Age>47</Age>
							</DemographicDetail>
						</PersonalData>
						<PersonalData>
							<EffectiveDate>
								<StartDate>
									<AnyDate>2007-11-08</AnyDate>
									<YearMonth>2007-11</YearMonth>
								</StartDate>
								<EndDate>
									<AnyDate>2007-11-08</AnyDate>
									<YearMonth>2007-11</YearMonth>
								</EndDate>
							</EffectiveDate>
							<PersonName>
								<FormattedName>CUMMINGS SHAUN JOSEPH</FormattedName>
								<GivenName>SHAUN</GivenName>
								<MiddleName>JOSEPH</MiddleName>
								<FamilyName>CUMMINGS</FamilyName>
							</PersonName>
							<PostalAddress type="undefined">
								<CountryCode>US</CountryCode>
								<PostalCode>93268-2443</PostalCode>
								<Region>CA</Region>
								<Municipality>TAFT</Municipality>
								<County>KERN</County>
								<DeliveryAddress>
									<AddressLine>420 FINLEY DR APT 57</AddressLine>
									<StreetName> 420 FINLEY DR APT 57  </StreetName>
								</DeliveryAddress>
							</PostalAddress>
							<DemographicDetail>
								<GovernmentId countryCode="US" documentType="SSN" issuingAuthority="Social Security Administration">005627638</GovernmentId>
								<DateOfBirth>--</DateOfBirth>
								<Age>00</Age>
							</DemographicDetail>
						</PersonalData>
						<PersonalData>
							<EffectiveDate>
								<StartDate>
									<YearMonth>1992-07</YearMonth>
								</StartDate>
								<EndDate>
									<AnyDate>2007-03-19</AnyDate>
									<YearMonth>2007-03</YearMonth>
								</EndDate>
							</EffectiveDate>
							<PersonName>
								<FormattedName>CUMMINGS SHAUN J</FormattedName>
								<GivenName>SHAUN</GivenName>
								<MiddleName>J</MiddleName>
								<FamilyName>CUMMINGS</FamilyName>
							</PersonName>
							<PostalAddress type="undefined">
								<CountryCode>US</CountryCode>
								<PostalCode>90660-3101</PostalCode>
								<Region>CA</Region>
								<Municipality>PICO RIVERA</Municipality>
								<County>LOS ANGELES</County>
								<DeliveryAddress>
									<AddressLine>9211 BRADHURST ST</AddressLine>
									<StreetName> 9211 BRADHURST ST  </StreetName>
								</DeliveryAddress>
							</PostalAddress>
							<DemographicDetail>
								<GovernmentId countryCode="US" documentType="SSN" issuingAuthority="Social Security Administration">005627638</GovernmentId>
								<DateOfBirth>1969-03-22</DateOfBirth>
								<Age>47</Age>
							</DemographicDetail>
						</PersonalData>
						<PersonalData>
							<EffectiveDate>
								<StartDate>
									<AnyDate>2005-09-26</AnyDate>
									<YearMonth>2005-09</YearMonth>
								</StartDate>
								<EndDate>
									<AnyDate>2005-09-26</AnyDate>
									<YearMonth>2005-09</YearMonth>
								</EndDate>
							</EffectiveDate>
							<PersonName>
								<FormattedName>CUMMINGS SHAUN J</FormattedName>
								<GivenName>SHAUN</GivenName>
								<MiddleName>J</MiddleName>
								<FamilyName>CUMMINGS</FamilyName>
							</PersonName>
							<PostalAddress type="undefined">
								<CountryCode>US</CountryCode>
								<PostalCode>90802-3916</PostalCode>
								<Region>CA</Region>
								<Municipality>LONG BEACH</Municipality>
								<County>LOS ANGELES</County>
								<DeliveryAddress>
									<AddressLine>1831 E APPLETON ST APT 12</AddressLine>
									<StreetName> 1831 E APPLETON ST APT 12  </StreetName>
								</DeliveryAddress>
							</PostalAddress>
							<DemographicDetail>
								<GovernmentId countryCode="US" documentType="SSN" issuingAuthority="Social Security Administration">005627638</GovernmentId>
								<DateOfBirth>1968-09-</DateOfBirth>
								<Age>47</Age>
							</DemographicDetail>
						</PersonalData>
						<PersonalData>
							<EffectiveDate>
								<StartDate>
									<AnyDate>2005-09-26</AnyDate>
									<YearMonth>2005-09</YearMonth>
								</StartDate>
								<EndDate>
									<AnyDate>2005-09-26</AnyDate>
									<YearMonth>2005-09</YearMonth>
								</EndDate>
							</EffectiveDate>
							<PersonName>
								<FormattedName>CUMMINGS SHAUN J</FormattedName>
								<GivenName>SHAUN</GivenName>
								<MiddleName>J</MiddleName>
								<FamilyName>CUMMINGS</FamilyName>
							</PersonName>
							<PostalAddress type="undefined">
								<CountryCode>US</CountryCode>
								<PostalCode>90601-3037</PostalCode>
								<Region>CA</Region>
								<Municipality>WHITTIER</Municipality>
								<County>LOS ANGELES</County>
								<DeliveryAddress>
									<AddressLine>12426 BEVERLY BLVD APT 2</AddressLine>
									<StreetName> 12426 BEVERLY BLVD APT 2  </StreetName>
								</DeliveryAddress>
							</PostalAddress>
							<DemographicDetail>
								<GovernmentId countryCode="US" documentType="SSN" issuingAuthority="Social Security Administration">005627638</GovernmentId>
								<DateOfBirth>1968-09-</DateOfBirth>
								<Age>47</Age>
							</DemographicDetail>
						</PersonalData>
						<PersonalData>
							<EffectiveDate>
								<StartDate>
									<AnyDate>2004-09-26</AnyDate>
									<YearMonth>2004-09</YearMonth>
								</StartDate>
								<EndDate>
									<AnyDate>2005-09-26</AnyDate>
									<YearMonth>2005-09</YearMonth>
								</EndDate>
							</EffectiveDate>
							<PersonName>
								<FormattedName>CUMMINGS SHAUN J</FormattedName>
								<GivenName>SHAUN</GivenName>
								<MiddleName>J</MiddleName>
								<FamilyName>CUMMINGS</FamilyName>
							</PersonName>
							<PostalAddress type="undefined">
								<CountryCode>US</CountryCode>
								<PostalCode>90602-2247</PostalCode>
								<Region>CA</Region>
								<Municipality>WHITTIER</Municipality>
								<County>LOS ANGELES</County>
								<DeliveryAddress>
									<AddressLine>8011 BRIGHT AVE APT 7</AddressLine>
									<StreetName> 8011 BRIGHT AVE APT 7  </StreetName>
								</DeliveryAddress>
							</PostalAddress>
							<DemographicDetail>
								<GovernmentId countryCode="US" documentType="SSN" issuingAuthority="Social Security Administration">005627638</GovernmentId>
								<DateOfBirth>1968-09-</DateOfBirth>
								<Age>47</Age>
							</DemographicDetail>
						</PersonalData>
						<PersonalData>
							<EffectiveDate>
								<StartDate>
									<AnyDate>2005-07-14</AnyDate>
									<YearMonth>2005-07</YearMonth>
								</StartDate>
								<EndDate>
									<AnyDate>2005-07-14</AnyDate>
									<YearMonth>2005-07</YearMonth>
								</EndDate>
							</EffectiveDate>
							<PersonName>
								<FormattedName>CUMMINGS SHAUN JOSEPH</FormattedName>
								<GivenName>SHAUN</GivenName>
								<MiddleName>JOSEPH</MiddleName>
								<FamilyName>CUMMINGS</FamilyName>
							</PersonName>
							<PostalAddress type="undefined">
								<CountryCode>US</CountryCode>
								<PostalCode>90601-3037</PostalCode>
								<Region>CA</Region>
								<Municipality>WHITTIER</Municipality>
								<County>LOS ANGELES</County>
								<DeliveryAddress>
									<AddressLine>12426 BEVERLY BLVD APT 2</AddressLine>
									<StreetName> 12426 BEVERLY BLVD APT 2  </StreetName>
								</DeliveryAddress>
							</PostalAddress>
							<DemographicDetail>
								<GovernmentId countryCode="US" documentType="SSN" issuingAuthority="Social Security Administration">005627638</GovernmentId>
								<DateOfBirth>--</DateOfBirth>
								<Age>00</Age>
							</DemographicDetail>
						</PersonalData>
						<PersonalData>
							<EffectiveDate>
								<StartDate>
									<AnyDate>1999-09-26</AnyDate>
									<YearMonth>1999-09</YearMonth>
								</StartDate>
								<EndDate>
									<AnyDate>2004-09-26</AnyDate>
									<YearMonth>2004-09</YearMonth>
								</EndDate>
							</EffectiveDate>
							<PersonName>
								<FormattedName>CUMMINGS SHAUN J</FormattedName>
								<GivenName>SHAUN</GivenName>
								<MiddleName>J</MiddleName>
								<FamilyName>CUMMINGS</FamilyName>
							</PersonName>
							<PostalAddress type="undefined">
								<CountryCode>US</CountryCode>
								<PostalCode>91744-5436</PostalCode>
								<Region>CA</Region>
								<Municipality>LA PUENTE</Municipality>
								<County>LOS ANGELES</County>
								<DeliveryAddress>
									<AddressLine>16107 CENTRAL AVE</AddressLine>
									<StreetName> 16107 CENTRAL AVE  </StreetName>
								</DeliveryAddress>
							</PostalAddress>
							<DemographicDetail>
								<GovernmentId countryCode="US" documentType="SSN" issuingAuthority="Social Security Administration">005627638</GovernmentId>
								<DateOfBirth>1968-09-</DateOfBirth>
								<Age>47</Age>
							</DemographicDetail>
						</PersonalData>
						<PersonalData>
							<EffectiveDate>
								<StartDate>
									<AnyDate>1995-09-26</AnyDate>
									<YearMonth>1995-09</YearMonth>
								</StartDate>
								<EndDate>
									<AnyDate>2004-09-26</AnyDate>
									<YearMonth>2004-09</YearMonth>
								</EndDate>
							</EffectiveDate>
							<PersonName>
								<FormattedName>CUMMINGS SHAUN J</FormattedName>
								<GivenName>SHAUN</GivenName>
								<MiddleName>J</MiddleName>
								<FamilyName>CUMMINGS</FamilyName>
							</PersonName>
							<PostalAddress type="undefined">
								<CountryCode>US</CountryCode>
								<PostalCode>90660-3101</PostalCode>
								<Region>CA</Region>
								<Municipality>PICO RIVERA</Municipality>
								<County>LOS ANGELES</County>
								<DeliveryAddress>
									<AddressLine>9211 BRADHURST ST</AddressLine>
									<StreetName> 9211 BRADHURST ST  </StreetName>
								</DeliveryAddress>
							</PostalAddress>
							<DemographicDetail>
								<GovernmentId countryCode="US" documentType="SSN" issuingAuthority="Social Security Administration">005627638</GovernmentId>
								<DateOfBirth>1968-09-</DateOfBirth>
								<Age>47</Age>
							</DemographicDetail>
						</PersonalData>
						<PersonalData>
							<EffectiveDate>
								<StartDate>
									<YearMonth>2000-02</YearMonth>
								</StartDate>
								<EndDate>
									<YearMonth>2004-06</YearMonth>
								</EndDate>
							</EffectiveDate>
							<PersonName>
								<FormattedName>CUMMINGS SHAWN J</FormattedName>
								<GivenName>SHAWN</GivenName>
								<MiddleName>J</MiddleName>
								<FamilyName>CUMMINGS</FamilyName>
							</PersonName>
							<PostalAddress type="undefined">
								<CountryCode>US</CountryCode>
								<PostalCode>91744-5436</PostalCode>
								<Region>CA</Region>
								<Municipality>LA PUENTE</Municipality>
								<County>LOS ANGELES</County>
								<DeliveryAddress>
									<AddressLine>16107 CENTRAL AVE</AddressLine>
									<StreetName> 16107 CENTRAL AVE  </StreetName>
								</DeliveryAddress>
							</PostalAddress>
							<DemographicDetail>
								<GovernmentId countryCode="US" documentType="SSN" issuingAuthority="Social Security Administration">005627638</GovernmentId>
								<DateOfBirth>1969-03-22</DateOfBirth>
								<Age>47</Age>
							</DemographicDetail>
						</PersonalData>
						<PersonalData>
							<EffectiveDate>
								<StartDate>
									<AnyDate>2000-09-26</AnyDate>
									<YearMonth>2000-09</YearMonth>
								</StartDate>
								<EndDate>
									<AnyDate>2003-09-26</AnyDate>
									<YearMonth>2003-09</YearMonth>
								</EndDate>
							</EffectiveDate>
							<PersonName>
								<FormattedName>CUMMINGS SHAUN J</FormattedName>
								<GivenName>SHAUN</GivenName>
								<MiddleName>J</MiddleName>
								<FamilyName>CUMMINGS</FamilyName>
							</PersonName>
							<PostalAddress type="undefined">
								<CountryCode>US</CountryCode>
								<PostalCode>90602-1517</PostalCode>
								<Region>CA</Region>
								<Municipality>WHITTIER</Municipality>
								<County>LOS ANGELES</County>
								<DeliveryAddress>
									<AddressLine>7632 NEWLIN AVE</AddressLine>
									<StreetName> 7632 NEWLIN AVE  </StreetName>
								</DeliveryAddress>
							</PostalAddress>
							<DemographicDetail>
								<GovernmentId countryCode="US" documentType="SSN" issuingAuthority="Social Security Administration">005627638</GovernmentId>
								<DateOfBirth>1968-09-</DateOfBirth>
								<Age>47</Age>
							</DemographicDetail>
						</PersonalData>
						<PersonalData>
							<EffectiveDate>
								<StartDate>
									<YearMonth>1990-03</YearMonth>
								</StartDate>
								<EndDate>
									<AnyDate>2001-09-26</AnyDate>
									<YearMonth>2001-09</YearMonth>
								</EndDate>
							</EffectiveDate>
							<PersonName>
								<FormattedName>CUMMINGS SHAUN J</FormattedName>
								<GivenName>SHAUN</GivenName>
								<MiddleName>J</MiddleName>
								<FamilyName>CUMMINGS</FamilyName>
							</PersonName>
							<PostalAddress type="undefined">
								<CountryCode>US</CountryCode>
								<PostalCode>04401-5224</PostalCode>
								<Region>ME</Region>
								<Municipality>BANGOR</Municipality>
								<County>PENOBSCOT</County>
								<DeliveryAddress>
									<AddressLine>32 GARLAND ST</AddressLine>
									<StreetName> 32 GARLAND ST  </StreetName>
								</DeliveryAddress>
							</PostalAddress>
							<DemographicDetail>
								<GovernmentId countryCode="US" documentType="SSN" issuingAuthority="Social Security Administration">005627638</GovernmentId>
								<DateOfBirth>1968-09-</DateOfBirth>
								<Age>47</Age>
							</DemographicDetail>
						</PersonalData>
						<PersonalData>
							<EffectiveDate>
								<StartDate>
									<YearMonth>1998-05</YearMonth>
								</StartDate>
								<EndDate>
									<YearMonth>2001-06</YearMonth>
								</EndDate>
							</EffectiveDate>
							<PersonName>
								<FormattedName>CUMMINGS SHAUN J</FormattedName>
								<GivenName>SHAUN</GivenName>
								<MiddleName>J</MiddleName>
								<FamilyName>CUMMINGS</FamilyName>
							</PersonName>
							<PostalAddress type="undefined">
								<CountryCode>US</CountryCode>
								<PostalCode>90602-1517</PostalCode>
								<Region>CA</Region>
								<Municipality>WHITTIER</Municipality>
								<County>LOS ANGELES</County>
								<DeliveryAddress>
									<AddressLine>7632 NEWLIN AVE</AddressLine>
									<StreetName> 7632 NEWLIN AVE  </StreetName>
								</DeliveryAddress>
							</PostalAddress>
							<DemographicDetail>
								<GovernmentId countryCode="US" documentType="SSN" issuingAuthority="Social Security Administration">005627638</GovernmentId>
								<DateOfBirth>--</DateOfBirth>
								<Age>00</Age>
							</DemographicDetail>
						</PersonalData>
						<PersonalData>
							<EffectiveDate>
								<StartDate>
									<AnyDate>1998-09-26</AnyDate>
									<YearMonth>1998-09</YearMonth>
								</StartDate>
								<EndDate>
									<AnyDate>1999-09-26</AnyDate>
									<YearMonth>1999-09</YearMonth>
								</EndDate>
							</EffectiveDate>
							<PersonName>
								<FormattedName>CUMMINGS SHAUN J</FormattedName>
								<GivenName>SHAUN</GivenName>
								<MiddleName>J</MiddleName>
								<FamilyName>CUMMINGS</FamilyName>
							</PersonName>
							<PostalAddress type="undefined">
								<CountryCode>US</CountryCode>
								<PostalCode>90602-1517</PostalCode>
								<Region>CA</Region>
								<Municipality>WHITTIER</Municipality>
								<County>LOS ANGELES</County>
								<DeliveryAddress>
									<AddressLine>7632 NEWLIN AVE APT 2</AddressLine>
									<StreetName> 7632 NEWLIN AVE APT 2  </StreetName>
								</DeliveryAddress>
							</PostalAddress>
							<DemographicDetail>
								<GovernmentId countryCode="US" documentType="SSN" issuingAuthority="Social Security Administration">005627638</GovernmentId>
								<DateOfBirth>1968-09-</DateOfBirth>
								<Age>47</Age>
							</DemographicDetail>
						</PersonalData>
						<PersonalData>
							<EffectiveDate>
								<StartDate>
									<AnyDate>1995-09-26</AnyDate>
									<YearMonth>1995-09</YearMonth>
								</StartDate>
								<EndDate>
									<AnyDate>1998-09-26</AnyDate>
									<YearMonth>1998-09</YearMonth>
								</EndDate>
							</EffectiveDate>
							<PersonName>
								<FormattedName>CUMMINGS SHAUN J</FormattedName>
								<GivenName>SHAUN</GivenName>
								<MiddleName>J</MiddleName>
								<FamilyName>CUMMINGS</FamilyName>
							</PersonName>
							<PostalAddress type="undefined">
								<CountryCode>US</CountryCode>
								<PostalCode>91745-2317</PostalCode>
								<Region>CA</Region>
								<Municipality>HACIENDA HEIGHTS</Municipality>
								<County>LOS ANGELES</County>
								<DeliveryAddress>
									<AddressLine>16168 SHADYBEND DR</AddressLine>
									<StreetName> 16168 SHADYBEND DR  </StreetName>
								</DeliveryAddress>
							</PostalAddress>
							<DemographicDetail>
								<GovernmentId countryCode="US" documentType="SSN" issuingAuthority="Social Security Administration">005627638</GovernmentId>
								<DateOfBirth>1968-09-</DateOfBirth>
								<Age>47</Age>
							</DemographicDetail>
						</PersonalData>
						<PersonalData>
							<EffectiveDate>
								<StartDate>
									<YearMonth>1991-07</YearMonth>
								</StartDate>
								<EndDate>
									<AnyDate>1998-09-26</AnyDate>
									<YearMonth>1998-09</YearMonth>
								</EndDate>
							</EffectiveDate>
							<PersonName>
								<FormattedName>CUMMINGS SHAWN </FormattedName>
								<GivenName>SHAWN</GivenName>
								<FamilyName>CUMMINGS</FamilyName>
							</PersonName>
							<PostalAddress type="undefined">
								<CountryCode>US</CountryCode>
								<PostalCode>91746-2812</PostalCode>
								<Region>CA</Region>
								<Municipality>LA PUENTE</Municipality>
								<County>LOS ANGELES</County>
								<DeliveryAddress>
									<AddressLine>203 S 4TH AVE</AddressLine>
									<StreetName> 203 S 4TH AVE  </StreetName>
								</DeliveryAddress>
							</PostalAddress>
							<DemographicDetail>
								<GovernmentId countryCode="US" documentType="SSN" issuingAuthority="Social Security Administration">001099183</GovernmentId>
								<DateOfBirth>--</DateOfBirth>
								<Age>00</Age>
							</DemographicDetail>
						</PersonalData>
						<PersonalData>
							<EffectiveDate>
								<StartDate>
									<AnyDate>1995-09-26</AnyDate>
									<YearMonth>1995-09</YearMonth>
								</StartDate>
								<EndDate>
									<AnyDate>1996-09-26</AnyDate>
									<YearMonth>1996-09</YearMonth>
								</EndDate>
							</EffectiveDate>
							<PersonName>
								<FormattedName>CUMMINGS SHAUN J</FormattedName>
								<GivenName>SHAUN</GivenName>
								<MiddleName>J</MiddleName>
								<FamilyName>CUMMINGS</FamilyName>
							</PersonName>
							<PostalAddress type="undefined">
								<CountryCode>US</CountryCode>
								<PostalCode>91750-3549</PostalCode>
								<Region>CA</Region>
								<Municipality>LA VERNE</Municipality>
								<County>LOS ANGELES</County>
								<DeliveryAddress>
									<AddressLine>2023 EVERGREEN ST</AddressLine>
									<StreetName> 2023 EVERGREEN ST  </StreetName>
								</DeliveryAddress>
							</PostalAddress>
							<DemographicDetail>
								<GovernmentId countryCode="US" documentType="SSN" issuingAuthority="Social Security Administration">005627638</GovernmentId>
								<DateOfBirth>1968-09-</DateOfBirth>
								<Age>47</Age>
							</DemographicDetail>
						</PersonalData>
						<PersonalData>
							<PersonName>
								<FormattedName>CUMMINGS SHAUN J</FormattedName>
								<GivenName>SHAUN</GivenName>
								<MiddleName>J</MiddleName>
								<FamilyName>CUMMINGS</FamilyName>
							</PersonName>
							<PostalAddress type="undefined">
								<CountryCode>US</CountryCode>
								<PostalCode>91745-2317</PostalCode>
								<Region>CA</Region>
								<Municipality>HACIENDA HEIGHTS</Municipality>
								<County>LOS ANGELES</County>
								<DeliveryAddress>
									<AddressLine>16168 SHADYBEND DR</AddressLine>
									<StreetName> 16168 SHADYBEND DR  </StreetName>
								</DeliveryAddress>
							</PostalAddress>
							<DemographicDetail>
								<GovernmentId countryCode="US" documentType="SSN" issuingAuthority="Social Security Administration">005627638</GovernmentId>
								<DateOfBirth>1971-05-27</DateOfBirth>
								<Age>45</Age>
							</DemographicDetail>
						</PersonalData>
						<PersonalData>
							<PersonName>
								<FormattedName>CUMMINGS SHAUN JOSEPH</FormattedName>
								<GivenName>SHAUN</GivenName>
								<MiddleName>JOSEPH</MiddleName>
								<FamilyName>CUMMINGS</FamilyName>
							</PersonName>
							<PersonName>
								<FormattedName>CUMMINGS SHAWN J</FormattedName>
								<GivenName>SHAWN</GivenName>
								<MiddleName>J</MiddleName>
								<FamilyName>CUMMINGS</FamilyName>
							</PersonName>
							<PostalAddress type="undefined">
								<CountryCode>US</CountryCode>
								<PostalCode>91745-2317</PostalCode>
								<Region>CA</Region>
								<Municipality>HACIENDA HEIGHTS</Municipality>
								<County>LOS ANGELES</County>
								<DeliveryAddress>
									<AddressLine>16168 SHADYBEND DR</AddressLine>
									<StreetName> 16168 SHADYBEND DR  </StreetName>
								</DeliveryAddress>
							</PostalAddress>
							<DemographicDetail>
								<GovernmentId countryCode="US" documentType="SSN" issuingAuthority="Social Security Administration"/>
								<DateOfBirth>1969-03-22</DateOfBirth>
								<Age>47</Age>
							</DemographicDetail>
						</PersonalData>
						<PersonalData>
							<PersonName>
								<FormattedName>CUMMINGS SHAUN J</FormattedName>
								<GivenName>SHAUN</GivenName>
								<MiddleName>J</MiddleName>
								<FamilyName>CUMMINGS</FamilyName>
							</PersonName>
							<PostalAddress type="undefined">
								<CountryCode>US</CountryCode>
								<PostalCode>91745-2324</PostalCode>
								<Region>CA</Region>
								<Municipality>HACIENDA HEIGHTS</Municipality>
								<County>LOS ANGELES</County>
								<DeliveryAddress>
									<AddressLine>16327 BINNEY ST</AddressLine>
									<StreetName> 16327 BINNEY ST  </StreetName>
								</DeliveryAddress>
							</PostalAddress>
							<DemographicDetail>
								<GovernmentId countryCode="US" documentType="SSN" issuingAuthority="Social Security Administration">005627638</GovernmentId>
								<DateOfBirth>1971-05-27</DateOfBirth>
								<Age>45</Age>
							</DemographicDetail>
						</PersonalData>
						<PersonalData>
							<PersonName>
								<FormattedName>CUMMINGS SHAUN J</FormattedName>
								<GivenName>SHAUN</GivenName>
								<MiddleName>J</MiddleName>
								<FamilyName>CUMMINGS</FamilyName>
							</PersonName>
							<PostalAddress type="undefined">
								<CountryCode>US</CountryCode>
								<PostalCode>91744-5436</PostalCode>
								<Region>CA</Region>
								<Municipality>LA PUENTE</Municipality>
								<County>LOS ANGELES</County>
								<DeliveryAddress>
									<AddressLine>16107 CENTRAL AVE</AddressLine>
									<StreetName> 16107 CENTRAL AVE  </StreetName>
								</DeliveryAddress>
							</PostalAddress>
							<DemographicDetail>
								<GovernmentId countryCode="US" documentType="SSN" issuingAuthority="Social Security Administration">005627638</GovernmentId>
								<DateOfBirth>1971-05-27</DateOfBirth>
								<Age>45</Age>
							</DemographicDetail>
						</PersonalData>
						<PersonalData>
							<PersonName>
								<FormattedName>CUMMINGS SHAUN JOSEPH</FormattedName>
								<GivenName>SHAUN</GivenName>
								<MiddleName>JOSEPH</MiddleName>
								<FamilyName>CUMMINGS</FamilyName>
							</PersonName>
							<PostalAddress type="undefined">
								<CountryCode>US</CountryCode>
								<PostalCode>91744-5436</PostalCode>
								<Region>CA</Region>
								<Municipality>LA PUENTE</Municipality>
								<County>LOS ANGELES</County>
								<DeliveryAddress>
									<AddressLine>16107 CENTRAL AVE</AddressLine>
									<StreetName> 16107 CENTRAL AVE  </StreetName>
								</DeliveryAddress>
							</PostalAddress>
							<DemographicDetail>
								<GovernmentId countryCode="US" documentType="SSN" issuingAuthority="Social Security Administration"/>
								<DateOfBirth>1969-03-22</DateOfBirth>
								<Age>47</Age>
							</DemographicDetail>
						</PersonalData>
						<PersonalData>
							<PersonName>
								<FormattedName>CUMMINGS SHAUN J</FormattedName>
								<GivenName>SHAUN</GivenName>
								<MiddleName>J</MiddleName>
								<FamilyName>CUMMINGS</FamilyName>
							</PersonName>
							<PostalAddress type="undefined">
								<CountryCode>US</CountryCode>
								<PostalCode>91750-3549</PostalCode>
								<Region>CA</Region>
								<Municipality>LA VERNE</Municipality>
								<County>LOS ANGELES</County>
								<DeliveryAddress>
									<AddressLine>2023 EVERGREEN ST</AddressLine>
									<StreetName> 2023 EVERGREEN ST  </StreetName>
								</DeliveryAddress>
							</PostalAddress>
							<DemographicDetail>
								<GovernmentId countryCode="US" documentType="SSN" issuingAuthority="Social Security Administration">005627638</GovernmentId>
								<DateOfBirth>1971-05-27</DateOfBirth>
								<Age>45</Age>
							</DemographicDetail>
						</PersonalData>
						<PersonalData>
							<PersonName>
								<FormattedName>CUMMINGS SHAUN JOSEPH</FormattedName>
								<GivenName>SHAUN</GivenName>
								<MiddleName>JOSEPH</MiddleName>
								<FamilyName>CUMMINGS</FamilyName>
							</PersonName>
							<PersonName>
								<FormattedName>CUMMINGS SHAWN J</FormattedName>
								<GivenName>SHAWN</GivenName>
								<MiddleName>J</MiddleName>
								<FamilyName>CUMMINGS</FamilyName>
							</PersonName>
							<PostalAddress type="undefined">
								<CountryCode>US</CountryCode>
								<PostalCode>91750-3549</PostalCode>
								<Region>CA</Region>
								<Municipality>LA VERNE</Municipality>
								<County>LOS ANGELES</County>
								<DeliveryAddress>
									<AddressLine>2023 EVERGREEN ST</AddressLine>
									<StreetName> 2023 EVERGREEN ST  </StreetName>
								</DeliveryAddress>
							</PostalAddress>
							<DemographicDetail>
								<GovernmentId countryCode="US" documentType="SSN" issuingAuthority="Social Security Administration"/>
								<DateOfBirth>1969-03-22</DateOfBirth>
								<Age>47</Age>
							</DemographicDetail>
						</PersonalData>
						<PersonalData>
							<PersonName>
								<FormattedName>CUMMINGS SHAUN J</FormattedName>
								<GivenName>SHAUN</GivenName>
								<MiddleName>J</MiddleName>
								<FamilyName>CUMMINGS</FamilyName>
							</PersonName>
							<PostalAddress type="undefined">
								<CountryCode>US</CountryCode>
								<PostalCode>90602-1517</PostalCode>
								<Region>CA</Region>
								<Municipality>WHITTIER</Municipality>
								<County>LOS ANGELES</County>
								<DeliveryAddress>
									<AddressLine>7632 NEWLIN AVE</AddressLine>
									<StreetName> 7632 NEWLIN AVE  </StreetName>
								</DeliveryAddress>
							</PostalAddress>
							<DemographicDetail>
								<GovernmentId countryCode="US" documentType="SSN" issuingAuthority="Social Security Administration">005627638</GovernmentId>
								<DateOfBirth>1971-05-27</DateOfBirth>
								<Age>45</Age>
							</DemographicDetail>
						</PersonalData>
						<PersonalData>
							<PersonName>
								<FormattedName>CUMMINGS SHAUN JOSEPH</FormattedName>
								<GivenName>SHAUN</GivenName>
								<MiddleName>JOSEPH</MiddleName>
								<FamilyName>CUMMINGS</FamilyName>
							</PersonName>
							<PersonName>
								<FormattedName>CUMMINGS SHAWN J</FormattedName>
								<GivenName>SHAWN</GivenName>
								<MiddleName>J</MiddleName>
								<FamilyName>CUMMINGS</FamilyName>
							</PersonName>
							<PostalAddress type="undefined">
								<CountryCode>US</CountryCode>
								<PostalCode>90602-1517</PostalCode>
								<Region>CA</Region>
								<Municipality>WHITTIER</Municipality>
								<County>LOS ANGELES</County>
								<DeliveryAddress>
									<AddressLine>7632 NEWLIN AVE APT 2</AddressLine>
									<StreetName> 7632 NEWLIN AVE APT 2  </StreetName>
								</DeliveryAddress>
							</PostalAddress>
							<DemographicDetail>
								<GovernmentId countryCode="US" documentType="SSN" issuingAuthority="Social Security Administration"/>
								<DateOfBirth>1969-03-22</DateOfBirth>
								<Age>47</Age>
							</DemographicDetail>
						</PersonalData>
						<PersonalData>
							<PersonName>
								<FormattedName>CUMMINGS SHAUN J</FormattedName>
								<GivenName>SHAUN</GivenName>
								<MiddleName>J</MiddleName>
								<FamilyName>CUMMINGS</FamilyName>
							</PersonName>
							<PostalAddress type="undefined">
								<CountryCode>US</CountryCode>
								<PostalCode>90602-2247</PostalCode>
								<Region>CA</Region>
								<Municipality>WHITTIER</Municipality>
								<County>LOS ANGELES</County>
								<DeliveryAddress>
									<AddressLine>8011 BRIGHT AVE APT 7</AddressLine>
									<StreetName> 8011 BRIGHT AVE APT 7  </StreetName>
								</DeliveryAddress>
							</PostalAddress>
							<DemographicDetail>
								<GovernmentId countryCode="US" documentType="SSN" issuingAuthority="Social Security Administration">005627638</GovernmentId>
								<DateOfBirth>1971-05-27</DateOfBirth>
								<Age>45</Age>
							</DemographicDetail>
						</PersonalData>
						<PersonalData>
							<PersonName>
								<FormattedName>CUMMINGS SHAUN JOSEPH</FormattedName>
								<GivenName>SHAUN</GivenName>
								<MiddleName>JOSEPH</MiddleName>
								<FamilyName>CUMMINGS</FamilyName>
							</PersonName>
							<PersonName>
								<FormattedName>CUMMINGS SHAWN J</FormattedName>
								<GivenName>SHAWN</GivenName>
								<MiddleName>J</MiddleName>
								<FamilyName>CUMMINGS</FamilyName>
							</PersonName>
							<PostalAddress type="undefined">
								<CountryCode>US</CountryCode>
								<PostalCode>90602-2247</PostalCode>
								<Region>CA</Region>
								<Municipality>WHITTIER</Municipality>
								<County>LOS ANGELES</County>
								<DeliveryAddress>
									<AddressLine>8011 BRIGHT AVE APT 7</AddressLine>
									<StreetName> 8011 BRIGHT AVE APT 7  </StreetName>
								</DeliveryAddress>
							</PostalAddress>
							<DemographicDetail>
								<GovernmentId countryCode="US" documentType="SSN" issuingAuthority="Social Security Administration"/>
								<DateOfBirth>1969-03-22</DateOfBirth>
								<Age>47</Age>
							</DemographicDetail>
						</PersonalData>
						<PersonalData>
							<PersonName>
								<FormattedName>CUMMINGS SEAN A</FormattedName>
								<GivenName>SEAN</GivenName>
								<MiddleName>A</MiddleName>
								<FamilyName>CUMMINGS</FamilyName>
							</PersonName>
							<PostalAddress type="undefined">
								<CountryCode>US</CountryCode>
								<PostalCode>66044-2473</PostalCode>
								<Region>KS</Region>
								<Municipality>LAWRENCE</Municipality>
								<County>DOUGLAS</County>
								<DeliveryAddress>
									<AddressLine>1515 W 9TH ST APT 6</AddressLine>
									<StreetName> 1515 W 9TH ST APT 6  </StreetName>
								</DeliveryAddress>
							</PostalAddress>
							<DemographicDetail>
								<GovernmentId countryCode="US" documentType="SSN" issuingAuthority="Social Security Administration"/>
								<DateOfBirth>1968-09-</DateOfBirth>
								<Age>47</Age>
							</DemographicDetail>
						</PersonalData>
						<PersonalData>
							<PersonName>
								<FormattedName>CUMMINGS SHAUN J</FormattedName>
								<GivenName>SHAUN</GivenName>
								<MiddleName>J</MiddleName>
								<FamilyName>CUMMINGS</FamilyName>
							</PersonName>
							<PostalAddress type="undefined">
								<CountryCode>US</CountryCode>
								<PostalCode>04401-5224</PostalCode>
								<Region>ME</Region>
								<Municipality>BANGOR</Municipality>
								<County>PENOBSCOT</County>
								<DeliveryAddress>
									<AddressLine>32 GARLAND ST</AddressLine>
									<StreetName> 32 GARLAND ST  </StreetName>
								</DeliveryAddress>
							</PostalAddress>
							<DemographicDetail>
								<GovernmentId countryCode="US" documentType="SSN" issuingAuthority="Social Security Administration">005627638</GovernmentId>
								<DateOfBirth>1971-05-27</DateOfBirth>
								<Age>45</Age>
							</DemographicDetail>
						</PersonalData>
						<PersonalData>
							<PersonName>
								<FormattedName>CUMMINGS SHAUN JOSEPH</FormattedName>
								<GivenName>SHAUN</GivenName>
								<MiddleName>JOSEPH</MiddleName>
								<FamilyName>CUMMINGS</FamilyName>
							</PersonName>
							<PersonName>
								<FormattedName>CUMMINGS SHAWN J</FormattedName>
								<GivenName>SHAWN</GivenName>
								<MiddleName>J</MiddleName>
								<FamilyName>CUMMINGS</FamilyName>
							</PersonName>
							<PostalAddress type="undefined">
								<CountryCode>US</CountryCode>
								<PostalCode>04401-5224</PostalCode>
								<Region>ME</Region>
								<Municipality>BANGOR</Municipality>
								<County>PENOBSCOT</County>
								<DeliveryAddress>
									<AddressLine>32 GARLAND ST</AddressLine>
									<StreetName> 32 GARLAND ST  </StreetName>
								</DeliveryAddress>
							</PostalAddress>
							<DemographicDetail>
								<GovernmentId countryCode="US" documentType="SSN" issuingAuthority="Social Security Administration"/>
								<DateOfBirth>1969-03-22</DateOfBirth>
								<Age>47</Age>
							</DemographicDetail>
						</PersonalData>
						<PersonalData>
							<PersonName>
								<FormattedName>CUMMINGS SHAUN J</FormattedName>
								<GivenName>SHAUN</GivenName>
								<MiddleName>J</MiddleName>
								<FamilyName>CUMMINGS</FamilyName>
							</PersonName>
							<PostalAddress type="undefined">
								<CountryCode>US</CountryCode>
								<PostalCode>04401-2643</PostalCode>
								<Region>ME</Region>
								<Municipality>BANGOR</Municipality>
								<County>PENOBSCOT</County>
								<DeliveryAddress>
									<AddressLine>979 ESSEX ST LOT 101</AddressLine>
									<StreetName> 979 ESSEX ST LOT 101  </StreetName>
								</DeliveryAddress>
							</PostalAddress>
							<DemographicDetail>
								<GovernmentId countryCode="US" documentType="SSN" issuingAuthority="Social Security Administration"/>
								<DateOfBirth>1969-03-</DateOfBirth>
								<Age>47</Age>
							</DemographicDetail>
						</PersonalData>
						<PersonalData>
							<PersonName>
								<FormattedName>CUMMINGS SHAUN J</FormattedName>
								<GivenName>SHAUN</GivenName>
								<MiddleName>J</MiddleName>
								<FamilyName>CUMMINGS</FamilyName>
							</PersonName>
							<PostalAddress type="undefined">
								<CountryCode>US</CountryCode>
								<PostalCode>04401-2640</PostalCode>
								<Region>ME</Region>
								<Municipality>BANGOR</Municipality>
								<County>PENOBSCOT</County>
								<DeliveryAddress>
									<AddressLine>979 ESSEX ST LOT 171</AddressLine>
									<StreetName> 979 ESSEX ST LOT 171  </StreetName>
								</DeliveryAddress>
							</PostalAddress>
							<DemographicDetail>
								<GovernmentId countryCode="US" documentType="SSN" issuingAuthority="Social Security Administration">005627638</GovernmentId>
								<DateOfBirth>1971-05-27</DateOfBirth>
								<Age>45</Age>
							</DemographicDetail>
						</PersonalData>
						<PersonalData>
							<PersonName>
								<FormattedName>CUMMINGS SHAUN J</FormattedName>
								<GivenName>SHAUN</GivenName>
								<MiddleName>J</MiddleName>
								<FamilyName>CUMMINGS</FamilyName>
							</PersonName>
							<PostalAddress type="undefined">
								<CountryCode>US</CountryCode>
								<PostalCode>04401-2640</PostalCode>
								<Region>ME</Region>
								<Municipality>BANGOR</Municipality>
								<County>PENOBSCOT</County>
								<DeliveryAddress>
									<AddressLine>979 ESSEX ST LOT 171</AddressLine>
									<StreetName> 979 ESSEX ST LOT 171  </StreetName>
								</DeliveryAddress>
							</PostalAddress>
							<DemographicDetail>
								<GovernmentId countryCode="US" documentType="SSN" issuingAuthority="Social Security Administration"/>
								<DateOfBirth>1969-03-</DateOfBirth>
								<Age>47</Age>
							</DemographicDetail>
						</PersonalData>
						<PersonalData>
							<PersonName>
								<FormattedName>CUMMINGS SHAWN J</FormattedName>
								<GivenName>SHAWN</GivenName>
								<MiddleName>J</MiddleName>
								<FamilyName>CUMMINGS</FamilyName>
							</PersonName>
							<PostalAddress type="undefined">
								<CountryCode>US</CountryCode>
								<PostalCode>04401-2640</PostalCode>
								<Region>ME</Region>
								<Municipality>BANGOR</Municipality>
								<County>PENOBSCOT</County>
								<DeliveryAddress>
									<AddressLine>979 ESSEX ST LOT 171</AddressLine>
									<StreetName> 979 ESSEX ST LOT 171  </StreetName>
								</DeliveryAddress>
							</PostalAddress>
							<DemographicDetail>
								<GovernmentId countryCode="US" documentType="SSN" issuingAuthority="Social Security Administration"/>
								<DateOfBirth>--</DateOfBirth>
								<Age>00</Age>
							</DemographicDetail>
						</PersonalData>
						<PersonalData>
							<PersonName>
								<FormattedName>CUMMINGS SHAUN JOSEPH</FormattedName>
								<GivenName>SHAUN</GivenName>
								<MiddleName>JOSEPH</MiddleName>
								<FamilyName>CUMMINGS</FamilyName>
							</PersonName>
							<PersonName>
								<FormattedName>CUMMINGS SHAWN J</FormattedName>
								<GivenName>SHAWN</GivenName>
								<MiddleName>J</MiddleName>
								<FamilyName>CUMMINGS</FamilyName>
							</PersonName>
							<PostalAddress type="undefined">
								<CountryCode>US</CountryCode>
								<PostalCode>68114-3403</PostalCode>
								<Region>NE</Region>
								<Municipality>OMAHA</Municipality>
								<County>DOUGLAS</County>
								<DeliveryAddress>
									<AddressLine>8501 W DODGE RD</AddressLine>
									<StreetName> 8501 W DODGE RD  </StreetName>
								</DeliveryAddress>
							</PostalAddress>
							<DemographicDetail>
								<GovernmentId countryCode="US" documentType="SSN" issuingAuthority="Social Security Administration"/>
								<DateOfBirth>1969-03-22</DateOfBirth>
								<Age>47</Age>
							</DemographicDetail>
						</PersonalData>
					</CreditFile>
				</SSNReport>
				<ScreeningStatus>
					<OrderStatus>Completed</OrderStatus>
				</ScreeningStatus>
			</Screening>
		</Screenings>
	</BackgroundReportPackage>
</BackgroundReports>