

****************************************
Emerge Reviewed for Order No:-160927161159370
Emerge Review Order Identity:- gregshaghoian@yahoo.com
Time of Event :- 9/27/2016 4:21:10 PM
****************************************


****************************************
Email Sending Failed for Order No:-160927161159370 Error:Failure sending mail.
Emerge Review Order Identity:- arunk3@chetu.com
Time of Event :- 9/27/2016 4:21:10 PM
****************************************
