

****************************************
Emerge Reviewed for Order No:-161013161526103
Emerge Review Order Identity:- gregshaghoian@yahoo.com
Time of Event :- 10/13/2016 4:20:44 PM
****************************************


****************************************
Email Sending Failed for Order No:-161013161526103 Error:Failure sending mail.
Emerge Review Order Identity:- arunk3@chetu.com
Time of Event :- 10/13/2016 4:20:44 PM
****************************************


****************************************
Emerge Reviewed for Order No:-161013192935298
Emerge Review Order Identity:- gregshaghoian@yahoo.com
Time of Event :- 10/13/2016 7:45:20 PM
****************************************


****************************************
Email Sending Failed for Order No:-161013192935298 Error:Failure sending mail.
Emerge Review Order Identity:- arunk3@chetu.com
Time of Event :- 10/13/2016 7:45:20 PM
****************************************
