
Request (10/13/2016 7:06:06 PM):RunReport(GeneralService ObjGeneralService)

<?xml version='1.0' encoding='UTF-8'?><BackgroundCheck	xmlns="http://ns.hr-xml.org/2004-08-02" xmlns:xsi="http://www.w3.org/2001/XMLSchema-instance" xsi:schemaLocation="http://ns.hr-xml.org/2004-08-02 BackgroundCheck.xsd"><BackgroundSearchPackage><PersonalData><PersonName><GivenName>denise</GivenName><MiddleName></MiddleName><FamilyName>ward</FamilyName></PersonName><DemographicDetail><DateOfBirth>1957-07-03</DateOfBirth><GovernmentId countryCode='US' issuingAuthority='SSN'>514643550</GovernmentId></DemographicDetail></PersonalData><Screenings><Screening type='criminal'><ReferenceId><IdValue>1416842126_NCR1</IdValue></ReferenceId><Region>COMP</Region><AdditionalItems type='dobnulls' ><Text>False</Text></AdditionalItems></Screening></Screenings></BackgroundSearchPackage></BackgroundCheck>

Response (10/13/2016 7:06:11 PM):RunReport(GeneralService ObjGeneralService)

<?xml version="1.0" encoding="ISO-8859-1"?>
<BackgroundReports xmlns="http://ns.hr-xml.org/2004-08-02" account="" password="" userId="">
    <BackgroundReportPackage>
        <ScreeningsSummary>
            <PersonalData>
                <PersonName>
                    <GivenName>denise</GivenName>
                    <MiddleName/>
                    <FamilyName>ward</FamilyName>
                </PersonName>
                <DemographicDetail>
                    <DateOfBirth>1957-07-03</DateOfBirth>
                    <GovernmentId countryCode="US" issuingAuthority="SSN">514643550</GovernmentId>
                </DemographicDetail>
            </PersonalData>
        </ScreeningsSummary>
        <Screenings>
            <Screening qualifier="" type="criminal">
                <ClientReferenceId>
                    <IdValue>1416842126_NCR1</IdValue>
                </ClientReferenceId>
                <Region>COMP</Region>
                <ScreeningResults mediaType="txt" resultType="report" type="result">
                    <Text>AOC - MISSOURI                                                                     
WARD,DENISE,A                                                      S=U R=U YOB=1957
ADDR: 53272 SYLVAN COURT BRISTOL IN 46507 US                                       
OFFENSES:                                                                          
COURT: 18TH JUDICIAL CIRCUIT (COOPER &amp;amp; PETTIS COUNTIES)                            
DOCKET NUM: 000625599                                                              
  FILED: 10/10/2002 DISPOSED: 11/04/2002                                           
    CHRG: (M)FAIL TO EQUIP 2 TAIL LIG                      OFFENSE DATE: 09/08/2002
      CODE/STATUTE: 307.075                                                        
    DISP: (M)FAIL TO EQUIP 2 TAIL LIG         GUILTY PLEA WRITTEN     ON 11/04/2002
      CODE/STATUTE: 307.075                                                        
      SENT: 1-FINE: 95.00                                      EFFECTIVE: 11/04/2002
      ARRESTING AGENCY: MO HP GENERAL HEADQUARTERS                                 
      TICKET NUMBER: 000625599                                                     
    CASE TYPE: AC TR STATE TRAFFIC TICKET                                          
    JUDGE/COMMISSIONER AT DISPOSIT: ASKREN, KENTON G                               
    LOCATION: ASSOCIATE DIVISION COOPER                                            
        10/10/2002 - MEMORANDUM FILED; FCC LETTER SENT TO DEF.                     
                                                                                   
        11/04/2002 - DEFENDANT SENTENCED;                                          
                                                                                   
        11/04/2002 - GUILTY PLEA WRITTEN SCHEDULED FOR:; 11/12/2002; 9:00          
        AM ; KENTON G ASKREN; SETTING: 1; ASSOCIATE DIVISION COOPER                
                                                                                   
        11/04/2002 - JUDGMENT ENTERED; FINE AMOUNT TOTAL - 95                      
                                                                                   
        11/04/2002 - TR VIOL COSTS TAXED(NO SHER)AC FILED BY:; DENISE A            
        WARD                                                                       
                                                                                   
        11/27/2002 - RECORD OF TRAFFIC DISP ISSUED FILED BY:; DENISE A             
        WARD                                                                       
                                                                                   
                                                                                  

AOC - MISSOURI                                                                     
WARD,DENISE,R                                                      S=U R=U YOB=1957
ADDR: PO BOX 124 MIAMI MO 65344 US                                                 
OFFENSES:                                                                          
COURT: 15TH JUDICIAL CIRCUIT (SALINE &amp;amp; LAFAYETTE COUNTIES)                         
DOCKET NUM: 15T060000010                                                           
  FILED: 01/04/2000 DISPOSED: 01/04/2000                                           
    CHRG: (M)EXCEEDED POSTED SPEED LIMIT (EXCEEDED BY 20 M OFFENSE DATE: 12/13/1999
      CODE/STATUTE: 304.010                                                        
    DISP: (M)EXCEEDED POSTED SPEED LIMIT (EX  GUILTY PLEA WRITTEN     ON 01/04/2000
      CODE/STATUTE: 304.010                                                        
      OFFENSE CLASS: B                                                             
      SENT: 1-FINE                                             EFFECTIVE: 01/04/2000
      TICKET NUMBER: 981087053                                                     
    CASE TYPE: AC TR STATE TRAFFIC TICKET                                          
    JUDGE/COMMISSIONER AT DISPOSIT: WILSON, RICK R                                 
    LOCATION: ASSC. DIV SALINE (DO NOT USE)                                        
        01/04/2000 - ARRAIGNMENT SCHEDULED; ARGNSF-ARRAIGNMENT SCHED AT            
        FILING; SCHEDULED FOR 02-FEB-00 AT 13:30                                   
                                                                                   
        01/04/2000 - DEFENDANT SENTENCED; FINE AMOUNT TOTAL - 200                  
                                                                                   
        01/04/2000 - GUILTY PLEA WRITTEN; WGP-WRITTEN GUILTY PLEA;                 
                                                                                   
        01/04/2000 - INFORMATION FILED; INF-INFORMATION;                           
                                                                                   
        01/04/2000 - JUDGMENT ENTERED; FINE AMOUNT $200.00                         
                                                                                   
        03/28/2013 - JUDGE/CLERK - NOTE; TICKET DESTROYED                          
                                                                                   
                                                                                  

AOC - MISSOURI                                                                     
WARD,DENISE,M                                                      S=U R=U YOB=1957
ADDR: 315 CREST KIRKWOOD MO 63122 US                                               
OFFENSES:                                                                          
COURT: 21ST JUDICIAL CIRCUIT (ST. LOUIS COUNTY)                                    
DOCKET NUM: 21T90TR20477                                                           
  FILED: 05/14/1990 DISPOSED: 06/28/1990                                           
    CHRG: (M)FAIL TO PLACE VEH NOT IN MOTION AS NEAR RIGHT OFFENSE DATE: 04/29/1990
      CODE/STATUTE: 304.015                                                        
    DISP: (M)FAIL TO PLACE VEH NOT IN MOTION  GUILTY PLEA             ON 06/28/1990
      CODE/STATUTE: 304.015                                                        
      OFFENSE CLASS: A                                                             
      SENT: 1-FINE                                             EFFECTIVE: 06/28/1990
      ARRESTING AGENCY: FRONTENAC PD                                               
      TEXT:: FINE OF $50.00                                                        
    CASE TYPE: AC TR STATE TRAFFIC TICKET                                          
    JUDGE/COMMISSIONER AT DISPOSIT: BLOCK, SUSAN E.                                
    LOCATION: ST LOUIS COUNTY                                                      
        05/14/1990 - COMPLAINT FILED; COMPLAINT FILED, CASE ASSIGNED TO            
        DIV 40                                                                     
                                                                                   
        05/14/1990 - HEARING SCHEDULED; CASE SET FOR INITIAL HEARING               
        06/28/90 09:30AM DIV 40                                                    
                                                                                   
        06/28/1990 - COSTS ORDERED TO DEF; COURT COSTS ORDERED $29.00              
        JUDGE SUSAN E. BLOCK, TEAM E, DIV 40                                       
                                                                                   
        06/28/1990 - DEFENDANT SENTENCED; DEFT SENTENCED ON CT-01 TO PAY           
        A FINE OF $50 JUDGE SUSAN E. BLOCK, TEAM E, DIV 40                         
                                                                                   
        06/28/1990 - FILING:; CT-01 EXC COUNTY SPEED LIMIT - 59 MPH                
        AMENDED TO ILLEGAL PARKING-STOPPING                                        
                                                                                   
        06/28/1990 - GUILTY PLEA; DEFT PLEADS GUILTY                               
                                                                                   
        06/28/1990 - ORDER; CT-01 ILLEGAL PARKING-STOPPING DEFT PLEADS             
        GUILTY JUDGE SUSAN E. BLOCK, TEAM E, DIV 40                                
                                                                                   
        06/28/1990 - PAYMENT REVIEW HRNG SCHEDULED; CONT FOR PAYMENT               
        08/06/90 09:30AM TEAM E, DIV 40 JUDGE SUSAN E. BLOCK, TEAM E,              
        DIV 40                                                                     
                                                                                   
        07/23/1990 - COSTS &amp;amp;/OR FINES PAID IN FULL; COURT COSTS $29.00,            
        FINE PAID                                                                  
                                                                                   
                                                                                  

AOC - MISSOURI                                                                     
WARD,DENISE,M                                                      S=U R=U YOB=1957
ADDR: 315 CREST KIRKWOOD MO 63122 US                                               
OFFENSES:                                                                          
COURT: 21ST JUDICIAL CIRCUIT (ST. LOUIS COUNTY)                                    
DOCKET NUM: 21T90TR20477                                                           
  FILED: 05/14/1990 DISPOSED: 06/28/1990                                           
    CHRG: (M)FAIL TO PLACE VEH NOT IN MOTION AS NEAR RIGHT OFFENSE DATE: 04/29/1990
      CODE/STATUTE: 304.015                                                        
    DISP: (M)FAIL TO PLACE VEH NOT IN MOTION  GUILTY PLEA             ON 06/28/1990
      CODE/STATUTE: 304.015                                                        
      OFFENSE CLASS: A                                                             
      SENT: 1-FINE                                             EFFECTIVE: 06/28/1990
      ARRESTING AGENCY: FRONTENAC PD                                               
      TEXT:: FINE OF $50.00                                                        
    CASE TYPE: AC TR STATE TRAFFIC TICKET                                          
    JUDGE/COMMISSIONER AT DISPOSIT: BLOCK, SUSAN E.                                
    LOCATION: ST LOUIS COUNTY                                                      
        05/14/1990 - COMPLAINT FILED; COMPLAINT FILED, CASE ASSIGNED TO            
        DIV 40                                                                     
                                                                                   
        05/14/1990 - HEARING SCHEDULED; CASE SET FOR INITIAL HEARING               
        06/28/90 09:30AM DIV 40                                                    
                                                                                   
        06/28/1990 - COSTS ORDERED TO DEF; COURT COSTS ORDERED $29.00              
        JUDGE SUSAN E. BLOCK, TEAM E, DIV 40                                       
                                                                                   
        06/28/1990 - DEFENDANT SENTENCED; DEFT SENTENCED ON CT-01 TO PAY           
        A FINE OF $50 JUDGE SUSAN E. BLOCK, TEAM E, DIV 40                         
                                                                                   
        06/28/1990 - FILING:; CT-01 EXC COUNTY SPEED LIMIT - 59 MPH                
        AMENDED TO ILLEGAL PARKING-STOPPING                                        
                                                                                   
        06/28/1990 - GUILTY PLEA; DEFT PLEADS GUILTY                               
                                                                                   
        06/28/1990 - ORDER; CT-01 ILLEGAL PARKING-STOPPING DEFT PLEADS             
        GUILTY JUDGE SUSAN E. BLOCK, TEAM E, DIV 40                                
                                                                                   
        06/28/1990 - PAYMENT REVIEW HRNG SCHEDULED; CONT FOR PAYMENT               
        08/06/90 09:30AM TEAM E, DIV 40 JUDGE SUSAN E. BLOCK, TEAM E,              
        DIV 40                                                                     
                                                                                   
        07/23/1990 - COSTS &amp;amp;/OR FINES PAID IN FULL; COURT COSTS $29.00,            
        FINE PAID                                                                  
                                                                                   
                                                                                  </Text>
                </ScreeningResults>
                <CriminalReport>
                    <CriminalCase>
                        <AgencyReference type="Docket">
                            <IdValue>000625599</IdValue>
                        </AgencyReference>
                        <AgencyReference type="ArrestingAgency">
                            <IdValue>MO HP GENERAL HEADQUARTERS</IdValue>
                        </AgencyReference>
                        <CourtName>AOC - MISSOURI - 18TH JUDICIAL CIRCUIT (COOPER&amp;PETTIS COUNTIES)</CourtName>
                        <CaseFileDate>2002-10-10T00:00:00</CaseFileDate>
                        <SubjectIdentification>
                            <PersonName>
                                <GivenName>DENISE</GivenName>
                                <MiddleName>A</MiddleName>
                                <FamilyName primary="true">WARD</FamilyName>
                            </PersonName>
                            <PostalAddress type="undefined">
                                <CountryCode>US</CountryCode>
                                <PostalCode>46507</PostalCode>
                                <Region>IN</Region>
                                <Municipality>BRISTOL</Municipality>
                                <DeliveryAddress>53272 SYLVAN COURT</DeliveryAddress>
                            </PostalAddress>
                            <DemographicDetail>
                                <Other type="Year of Birth">1957</Other>
                            </DemographicDetail>
                        </SubjectIdentification>
                        <Charge>
                            <ChargeId>
                                <IdValue>1</IdValue>
                            </ChargeId>
                            <ChargeOrComplaint>FAIL TO EQUIP 2 TAIL LIG (STATUTE: 307.075)</ChargeOrComplaint>
                            <ChargeTypeClassification>misdemeanor</ChargeTypeClassification>
                            <ChargeDate>2002-10-10T00:00:00</ChargeDate>
                            <OffenseDate>2002-09-08T00:00:00</OffenseDate>
                            <Sentence>SENTENCE DATE: 11/04/2002 TYPE: 1-FINE: 95.00</Sentence>
                            <Disposition>GUILTY PLEA WRITTEN</Disposition>
                            <DispositionDate>2002-11-04T00:00:00</DispositionDate>
                            <Comment>ARRESTING AGENCY: MO HP GENERAL HEADQUARTERS</Comment>
                            <Comment>TICKET NUMBER: 000625599</Comment>
                        </Charge>
                        <AdditionalItems>
                            <EffectiveDate>
                                <StartDate>
                                    <AnyDate>2002-11-27T00:00:00</AnyDate>
                                </StartDate>
                            </EffectiveDate>
                            <Text>NOTE : 11/27/2002 - RECORD OF TRAFFIC DISP ISSUED FILED BY:; DENISE A WARD</Text>
                        </AdditionalItems>
                        <AdditionalItems>
                            <EffectiveDate>
                                <StartDate>
                                    <AnyDate>2002-11-04T00:00:00</AnyDate>
                                </StartDate>
                            </EffectiveDate>
                            <Text>NOTE : 11/04/2002 - DEFENDANT SENTENCED;</Text>
                        </AdditionalItems>
                        <AdditionalItems>
                            <EffectiveDate>
                                <StartDate>
                                    <AnyDate>2002-11-04T00:00:00</AnyDate>
                                </StartDate>
                            </EffectiveDate>
                            <Text>NOTE : 11/04/2002 - GUILTY PLEA WRITTEN SCHEDULED FOR:; 11/12/2002; 9:00 AM ; KENTON G ASKREN; SETTING: 1; ASSOCIATE DIVISION COOPER</Text>
                        </AdditionalItems>
                        <AdditionalItems>
                            <EffectiveDate>
                                <StartDate>
                                    <AnyDate>2002-11-04T00:00:00</AnyDate>
                                </StartDate>
                            </EffectiveDate>
                            <Text>NOTE : 11/04/2002 - JUDGMENT ENTERED; FINE AMOUNT TOTAL - 95</Text>
                        </AdditionalItems>
                        <AdditionalItems>
                            <EffectiveDate>
                                <StartDate>
                                    <AnyDate>2002-11-04T00:00:00</AnyDate>
                                </StartDate>
                            </EffectiveDate>
                            <Text>NOTE : 11/04/2002 - TR VIOL COSTS TAXED(NO SHER)AC FILED BY:; DENISE A WARD</Text>
                        </AdditionalItems>
                        <AdditionalItems>
                            <EffectiveDate>
                                <StartDate>
                                    <AnyDate>2002-10-10T00:00:00</AnyDate>
                                </StartDate>
                            </EffectiveDate>
                            <Text>NOTE : 10/10/2002 - MEMORANDUM FILED; FCC LETTER SENT TO DEF.</Text>
                        </AdditionalItems>
                        <AdditionalItems>
                            <Text>CASE TYPE: AC TR STATE TRAFFIC TICKET</Text>
                        </AdditionalItems>
                        <AdditionalItems>
                            <Text>JUDGE/COMMISSIONER AT DISPOSIT: ASKREN, KENTON G</Text>
                        </AdditionalItems>
                        <AdditionalItems>
                            <Text>LOCATION: ASSOCIATE DIVISION COOPER</Text>
                        </AdditionalItems>
                    </CriminalCase>
                    <CriminalCase>
                        <AgencyReference type="Docket">
                            <IdValue>21T90TR20477</IdValue>
                        </AgencyReference>
                        <AgencyReference type="ArrestingAgency">
                            <IdValue>FRONTENAC PD</IdValue>
                        </AgencyReference>
                        <CourtName>AOC - MISSOURI - 21ST JUDICIAL CIRCUIT (ST. LOUIS COUNTY)</CourtName>
                        <CaseFileDate>1990-05-14T00:00:00</CaseFileDate>
                        <SubjectIdentification>
                            <PersonName>
                                <GivenName>DENISE</GivenName>
                                <MiddleName>M</MiddleName>
                                <FamilyName primary="true">WARD</FamilyName>
                            </PersonName>
                            <PostalAddress type="undefined">
                                <CountryCode>US</CountryCode>
                                <PostalCode>63122</PostalCode>
                                <Region>MO</Region>
                                <Municipality>CREST KIRKWOOD</Municipality>
                                <DeliveryAddress>315</DeliveryAddress>
                            </PostalAddress>
                            <DemographicDetail>
                                <Other type="Year of Birth">1957</Other>
                            </DemographicDetail>
                        </SubjectIdentification>
                        <Charge>
                            <ChargeId>
                                <IdValue>1</IdValue>
                            </ChargeId>
                            <ChargeOrComplaint>FAIL TO PLACE VEH NOT IN MOTION AS NEAR RIGHT HAND SIDE OF HIGHWAY AS PRACTICABLE, RESULTING IN AN ACCIDENT (STATUTE: 304.015)</ChargeOrComplaint>
                            <ChargeTypeClassification>misdemeanor</ChargeTypeClassification>
                            <ChargeDate>1990-05-14T00:00:00</ChargeDate>
                            <ChargeClassification>A</ChargeClassification>
                            <OffenseDate>1990-04-29T00:00:00</OffenseDate>
                            <Sentence>SENTENCE DATE: 06/28/1990 TYPE: 1-FINE:</Sentence>
                            <Disposition>GUILTY PLEA</Disposition>
                            <DispositionDate>1990-06-28T00:00:00</DispositionDate>
                            <Comment>ORIGINAL OFFENSE: FAIL TO PLACE VEH NOT IN MOTION AS NEAR RIGHT HAND SIDE OF HIGHWAY AS PRACTICABLE, RESULTING IN AN A (STATUTE: 304.015)</Comment>
                            <Comment>ARRESTING AGENCY: FRONTENAC PD</Comment>
                            <Comment>TEXT:: FINE OF $50.00</Comment>
                        </Charge>
                        <AdditionalItems>
                            <EffectiveDate>
                                <StartDate>
                                    <AnyDate>1990-07-23T00:00:00</AnyDate>
                                </StartDate>
                            </EffectiveDate>
                            <Text>NOTE : 07/23/1990 - COSTS&amp;/OR FINES PAID IN FULL; COURT COSTS $29.00, FINE PAID</Text>
                        </AdditionalItems>
                        <AdditionalItems>
                            <EffectiveDate>
                                <StartDate>
                                    <AnyDate>1990-06-28T00:00:00</AnyDate>
                                </StartDate>
                            </EffectiveDate>
                            <Text>NOTE : 06/28/1990 - COSTS ORDERED TO DEF; COURT COSTS ORDERED $29.00 JUDGE SUSAN E. BLOCK, TEAM E, DIV 40</Text>
                        </AdditionalItems>
                        <AdditionalItems>
                            <EffectiveDate>
                                <StartDate>
                                    <AnyDate>1990-06-28T00:00:00</AnyDate>
                                </StartDate>
                            </EffectiveDate>
                            <Text>NOTE : 06/28/1990 - DEFENDANT SENTENCED; DEFT SENTENCED ON CT-01 TO PAY A FINE OF $50 JUDGE SUSAN E. BLOCK, TEAM E, DIV 40</Text>
                        </AdditionalItems>
                        <AdditionalItems>
                            <EffectiveDate>
                                <StartDate>
                                    <AnyDate>1990-06-28T00:00:00</AnyDate>
                                </StartDate>
                            </EffectiveDate>
                            <Text>NOTE : 06/28/1990 - FILING:; CT-01 EXC COUNTY SPEED LIMIT - 59 MPH AMENDED TO ILLEGAL PARKING-STOPPING</Text>
                        </AdditionalItems>
                        <AdditionalItems>
                            <EffectiveDate>
                                <StartDate>
                                    <AnyDate>1990-06-28T00:00:00</AnyDate>
                                </StartDate>
                            </EffectiveDate>
                            <Text>NOTE : 06/28/1990 - GUILTY PLEA; DEFT PLEADS GUILTY</Text>
                        </AdditionalItems>
                        <AdditionalItems>
                            <EffectiveDate>
                                <StartDate>
                                    <AnyDate>1990-06-28T00:00:00</AnyDate>
                                </StartDate>
                            </EffectiveDate>
                            <Text>NOTE : 06/28/1990 - ORDER; CT-01 ILLEGAL PARKING-STOPPING DEFT PLEADS GUILTY JUDGE SUSAN E. BLOCK, TEAM E, DIV 40</Text>
                        </AdditionalItems>
                        <AdditionalItems>
                            <EffectiveDate>
                                <StartDate>
                                    <AnyDate>1990-06-28T00:00:00</AnyDate>
                                </StartDate>
                            </EffectiveDate>
                            <Text>NOTE : 06/28/1990 - PAYMENT REVIEW HRNG SCHEDULED; CONT FOR PAYMENT 08/06/90 09:30AM TEAM E, DIV 40 JUDGE SUSAN E. BLOCK, TEAM E, DIV 40</Text>
                        </AdditionalItems>
                        <AdditionalItems>
                            <EffectiveDate>
                                <StartDate>
                                    <AnyDate>1990-05-14T00:00:00</AnyDate>
                                </StartDate>
                            </EffectiveDate>
                            <Text>NOTE : 05/14/1990 - COMPLAINT FILED; COMPLAINT FILED, CASE ASSIGNED TO DIV 40</Text>
                        </AdditionalItems>
                        <AdditionalItems>
                            <EffectiveDate>
                                <StartDate>
                                    <AnyDate>1990-05-14T00:00:00</AnyDate>
                                </StartDate>
                            </EffectiveDate>
                            <Text>NOTE : 05/14/1990 - HEARING SCHEDULED; CASE SET FOR INITIAL HEARING 06/28/90 09:30AM DIV 40</Text>
                        </AdditionalItems>
                        <AdditionalItems>
                            <Text>CASE TYPE: AC TR STATE TRAFFIC TICKET</Text>
                        </AdditionalItems>
                        <AdditionalItems>
                            <Text>JUDGE/COMMISSIONER AT DISPOSIT: BLOCK, SUSAN E.</Text>
                        </AdditionalItems>
                        <AdditionalItems>
                            <Text>LOCATION: ST LOUIS COUNTY</Text>
                        </AdditionalItems>
                    </CriminalCase>
                    <CriminalCase>
                        <AgencyReference type="Docket">
                            <IdValue>21T90TR20477</IdValue>
                        </AgencyReference>
                        <AgencyReference type="ArrestingAgency">
                            <IdValue>FRONTENAC PD</IdValue>
                        </AgencyReference>
                        <CourtName>AOC - MISSOURI - 21ST JUDICIAL CIRCUIT (ST. LOUIS COUNTY)</CourtName>
                        <CaseFileDate>1990-05-14T00:00:00</CaseFileDate>
                        <SubjectIdentification>
                            <PersonName>
                                <GivenName>DENISE</GivenName>
                                <MiddleName>M</MiddleName>
                                <FamilyName primary="true">WARD</FamilyName>
                            </PersonName>
                            <PostalAddress type="undefined">
                                <CountryCode>US</CountryCode>
                                <PostalCode>63122</PostalCode>
                                <Region>MO</Region>
                                <Municipality>KIRKWOOD</Municipality>
                                <DeliveryAddress>315 CREST</DeliveryAddress>
                            </PostalAddress>
                            <DemographicDetail>
                                <Other type="Year of Birth">1957</Other>
                            </DemographicDetail>
                        </SubjectIdentification>
                        <Charge>
                            <ChargeId>
                                <IdValue>1</IdValue>
                            </ChargeId>
                            <ChargeOrComplaint>FAIL TO PLACE VEH NOT IN MOTION AS NEAR RIGHT HAND SIDE OF HIGHWAY AS PRACTICABLE, RESULTING IN AN ACCIDENT (STATUTE: 304.015)</ChargeOrComplaint>
                            <ChargeTypeClassification>misdemeanor</ChargeTypeClassification>
                            <ChargeDate>1990-05-14T00:00:00</ChargeDate>
                            <ChargeClassification>A</ChargeClassification>
                            <OffenseDate>1990-04-29T00:00:00</OffenseDate>
                            <Sentence>SENTENCE DATE: 06/28/1990 TYPE: 1-FINE:</Sentence>
                            <Disposition>GUILTY PLEA</Disposition>
                            <DispositionDate>1990-06-28T00:00:00</DispositionDate>
                            <Comment>ORIGINAL OFFENSE: FAIL TO PLACE VEH NOT IN MOTION AS NEAR RIGHT HAND SIDE OF HIGHWAY AS PRACTICABLE, RESULTING IN AN A (STATUTE: 304.015)</Comment>
                            <Comment>ARRESTING AGENCY: FRONTENAC PD</Comment>
                            <Comment>TEXT:: FINE OF $50.00</Comment>
                        </Charge>
                        <AdditionalItems>
                            <EffectiveDate>
                                <StartDate>
                                    <AnyDate>1990-07-23T00:00:00</AnyDate>
                                </StartDate>
                            </EffectiveDate>
                            <Text>NOTE : 07/23/1990 - COSTS&amp;/OR FINES PAID IN FULL; COURT COSTS $29.00, FINE PAID</Text>
                        </AdditionalItems>
                        <AdditionalItems>
                            <EffectiveDate>
                                <StartDate>
                                    <AnyDate>1990-06-28T00:00:00</AnyDate>
                                </StartDate>
                            </EffectiveDate>
                            <Text>NOTE : 06/28/1990 - COSTS ORDERED TO DEF; COURT COSTS ORDERED $29.00 JUDGE SUSAN E. BLOCK, TEAM E, DIV 40</Text>
                        </AdditionalItems>
                        <AdditionalItems>
                            <EffectiveDate>
                                <StartDate>
                                    <AnyDate>1990-06-28T00:00:00</AnyDate>
                                </StartDate>
                            </EffectiveDate>
                            <Text>NOTE : 06/28/1990 - DEFENDANT SENTENCED; DEFT SENTENCED ON CT-01 TO PAY A FINE OF $50 JUDGE SUSAN E. BLOCK, TEAM E, DIV 40</Text>
                        </AdditionalItems>
                        <AdditionalItems>
                            <EffectiveDate>
                                <StartDate>
                                    <AnyDate>1990-06-28T00:00:00</AnyDate>
                                </StartDate>
                            </EffectiveDate>
                            <Text>NOTE : 06/28/1990 - FILING:; CT-01 EXC COUNTY SPEED LIMIT - 59 MPH AMENDED TO ILLEGAL PARKING-STOPPING</Text>
                        </AdditionalItems>
                        <AdditionalItems>
                            <EffectiveDate>
                                <StartDate>
                                    <AnyDate>1990-06-28T00:00:00</AnyDate>
                                </StartDate>
                            </EffectiveDate>
                            <Text>NOTE : 06/28/1990 - GUILTY PLEA; DEFT PLEADS GUILTY</Text>
                        </AdditionalItems>
                        <AdditionalItems>
                            <EffectiveDate>
                                <StartDate>
                                    <AnyDate>1990-06-28T00:00:00</AnyDate>
                                </StartDate>
                            </EffectiveDate>
                            <Text>NOTE : 06/28/1990 - ORDER; CT-01 ILLEGAL PARKING-STOPPING DEFT PLEADS GUILTY JUDGE SUSAN E. BLOCK, TEAM E, DIV 40</Text>
                        </AdditionalItems>
                        <AdditionalItems>
                            <EffectiveDate>
                                <StartDate>
                                    <AnyDate>1990-06-28T00:00:00</AnyDate>
                                </StartDate>
                            </EffectiveDate>
                            <Text>NOTE : 06/28/1990 - PAYMENT REVIEW HRNG SCHEDULED; CONT FOR PAYMENT 08/06/90 09:30AM TEAM E, DIV 40 JUDGE SUSAN E. BLOCK, TEAM E, DIV 40</Text>
                        </AdditionalItems>
                        <AdditionalItems>
                            <EffectiveDate>
                                <StartDate>
                                    <AnyDate>1990-05-14T00:00:00</AnyDate>
                                </StartDate>
                            </EffectiveDate>
                            <Text>NOTE : 05/14/1990 - COMPLAINT FILED; COMPLAINT FILED, CASE ASSIGNED TO DIV 40</Text>
                        </AdditionalItems>
                        <AdditionalItems>
                            <EffectiveDate>
                                <StartDate>
                                    <AnyDate>1990-05-14T00:00:00</AnyDate>
                                </StartDate>
                            </EffectiveDate>
                            <Text>NOTE : 05/14/1990 - HEARING SCHEDULED; CASE SET FOR INITIAL HEARING 06/28/90 09:30AM DIV 40</Text>
                        </AdditionalItems>
                        <AdditionalItems>
                            <Text>CASE TYPE: AC TR STATE TRAFFIC TICKET</Text>
                        </AdditionalItems>
                        <AdditionalItems>
                            <Text>JUDGE/COMMISSIONER AT DISPOSIT: BLOCK, SUSAN E.</Text>
                        </AdditionalItems>
                        <AdditionalItems>
                            <Text>LOCATION: ST LOUIS COUNTY</Text>
                        </AdditionalItems>
                    </CriminalCase>
                    <CriminalCase>
                        <AgencyReference type="Docket">
                            <IdValue>15T060000010</IdValue>
                        </AgencyReference>
                        <CourtName>AOC - MISSOURI - 15TH JUDICIAL CIRCUIT (SALINE&amp;LAFAYETTE COUNTIES)</CourtName>
                        <CaseFileDate>2000-01-04T00:00:00</CaseFileDate>
                        <SubjectIdentification>
                            <PersonName>
                                <GivenName>DENISE</GivenName>
                                <MiddleName>R</MiddleName>
                                <FamilyName primary="true">WARD</FamilyName>
                            </PersonName>
                            <PostalAddress type="undefined">
                                <CountryCode>US</CountryCode>
                                <PostalCode>65344</PostalCode>
                                <Region>MO</Region>
                                <Municipality>MIAMI</Municipality>
                                <DeliveryAddress>PO BOX 124</DeliveryAddress>
                            </PostalAddress>
                            <DemographicDetail>
                                <Other type="Year of Birth">1957</Other>
                            </DemographicDetail>
                        </SubjectIdentification>
                        <Charge>
                            <ChargeId>
                                <IdValue>1</IdValue>
                            </ChargeId>
                            <ChargeOrComplaint>EXCEEDED POSTED SPEED LIMIT (EXCEEDED BY 20 MPH OR MORE) (STATUTE: 304.010)</ChargeOrComplaint>
                            <ChargeTypeClassification>misdemeanor</ChargeTypeClassification>
                            <ChargeDate>2000-01-04T00:00:00</ChargeDate>
                            <ChargeClassification>B</ChargeClassification>
                            <OffenseDate>1999-12-13T00:00:00</OffenseDate>
                            <Sentence>SENTENCE DATE: 01/04/2000 TYPE: 1-FINE:</Sentence>
                            <Disposition>GUILTY PLEA WRITTEN</Disposition>
                            <DispositionDate>2000-01-04T00:00:00</DispositionDate>
                            <Comment>TICKET NUMBER: 981087053</Comment>
                        </Charge>
                        <AdditionalItems>
                            <EffectiveDate>
                                <StartDate>
                                    <AnyDate>2013-03-28T00:00:00</AnyDate>
                                </StartDate>
                            </EffectiveDate>
                            <Text>NOTE : 03/28/2013 - JUDGE/CLERK - NOTE; TICKET DESTROYED</Text>
                        </AdditionalItems>
                        <AdditionalItems>
                            <EffectiveDate>
                                <StartDate>
                                    <AnyDate>2000-01-04T00:00:00</AnyDate>
                                </StartDate>
                            </EffectiveDate>
                            <Text>NOTE : 01/04/2000 - ARRAIGNMENT SCHEDULED; ARGNSF-ARRAIGNMENT SCHED AT FILING; SCHEDULED FOR 02-FEB-00 AT 13:30</Text>
                        </AdditionalItems>
                        <AdditionalItems>
                            <EffectiveDate>
                                <StartDate>
                                    <AnyDate>2000-01-04T00:00:00</AnyDate>
                                </StartDate>
                            </EffectiveDate>
                            <Text>NOTE : 01/04/2000 - DEFENDANT SENTENCED; FINE AMOUNT TOTAL - 200</Text>
                        </AdditionalItems>
                        <AdditionalItems>
                            <EffectiveDate>
                                <StartDate>
                                    <AnyDate>2000-01-04T00:00:00</AnyDate>
                                </StartDate>
                            </EffectiveDate>
                            <Text>NOTE : 01/04/2000 - GUILTY PLEA WRITTEN; WGP-WRITTEN GUILTY PLEA;</Text>
                        </AdditionalItems>
                        <AdditionalItems>
                            <EffectiveDate>
                                <StartDate>
                                    <AnyDate>2000-01-04T00:00:00</AnyDate>
                                </StartDate>
                            </EffectiveDate>
                            <Text>NOTE : 01/04/2000 - INFORMATION FILED; INF-INFORMATION;</Text>
                        </AdditionalItems>
                        <AdditionalItems>
                            <EffectiveDate>
                                <StartDate>
                                    <AnyDate>2000-01-04T00:00:00</AnyDate>
                                </StartDate>
                            </EffectiveDate>
                            <Text>NOTE : 01/04/2000 - JUDGMENT ENTERED; FINE AMOUNT $200.00</Text>
                        </AdditionalItems>
                        <AdditionalItems>
                            <Text>CASE TYPE: AC TR STATE TRAFFIC TICKET</Text>
                        </AdditionalItems>
                        <AdditionalItems>
                            <Text>JUDGE/COMMISSIONER AT DISPOSIT: WILSON, RICK R</Text>
                        </AdditionalItems>
                        <AdditionalItems>
                            <Text>LOCATION: ASSC. DIV SALINE (DO NOT USE)</Text>
                        </AdditionalItems>
                    </CriminalCase>
                </CriminalReport>
                <ScreeningStatus>
                    <OrderStatus>Completed</OrderStatus>
                    <ResultStatus>Hit</ResultStatus>
                    <AdditionalItems>
                        <Text>Data obtained from RapidCourt.com is provided 'as is' without express or implied warranties of any kind from anyone.  This disclaimer includes without limitation, implied warranties of merchantability and fitness for a particular purpose.  RapidCourt.com makes no warranty as to the quality, accuracy, completeness, timeliness and validity of the data or its compliance with any applicable law.  All users are urged to conduct additional qualification and verification measures prior to using this data in any manner.  Furthermore, all users agree to comply with all applicable law (including the FCRA and GLBA) relating to the access and use of this data.  RapidCourt.com is not liable for any claims or damages arising out of or relating to the use of this data.</Text>
                    </AdditionalItems>
                </ScreeningStatus>
            </Screening>
        </Screenings>
    </BackgroundReportPackage>
</BackgroundReports>
