---------------------------------------------------------------------------------------
1/16 Package thread start: 7/2/2016 4:33:53 PM
2 Session['EmergeReport'] Value has been get : 7/2/2016 4:33:53 PM
3 Session['EmergeReport'] Value has been set : 7/2/2016 4:33:53 PM
4 Function calling start : 7/2/2016 4:33:53 PM
5 Try block : 7/2/2016 4:33:54 PM
6 Loop start : 7/2/2016 4:33:54 PM
7 Loop end : 7/2/2016 4:33:54 PM
8 SCR Start : 7/2/2016 4:33:54 PM
9 SCR End : 7/2/2016 4:33:54 PM
10 FCR start : 7/2/2016 4:33:54 PM
11 FCR End : 7/2/2016 4:33:54 PM
12 UpdateOrders4Tiered start : 7/2/2016 4:33:54 PM
13 UpdateOrders4Tiered end : 7/2/2016 4:35:02 PM
14 Session value set : 7/2/2016 4:35:02 PM
15 Session value set : 7/2/2016 4:35:02 PM
